Pilot analysis
…
`summarise()` has grouped output by 'name'. You can override using the
`.groups` argument.

# A tibble: 1,134 × 3
# Groups:   name [1,134]
   name    freq_block     n
   <chr>   <fct>      <int>
 1 Alex    700           64
 2 Andrea  700           64
 3 Ashley  700           64
 4 Charlie 700           64
 5 James   700           64
 6 Jamie   800           64
 7 Lee     700           64
 8 Morgan  700           64
 9 Robin   700           64
10 William 700           64
# ℹ 1,124 more rows
…
         comment = `Text Entry`) |> 
  mutate(participant = as.numeric(as.factor(participant)),
         freq_block = as.factor(freq_block),
         masc = as.numeric(masc),
         fem = as.numeric(fem),
         neut = as.numeric(neut)) |> 
  filter(name %in% hsp21Names) |> 
  group_by(name) |> 
  summarise(n = n(),
            masc = mean(masc),
            fem = mean(fem),
            neut = mean(neut)) |> 
  arrange(desc(n),name)

# A tibble: 23 × 5
   name        n  masc   fem  neut
   <chr>   <int> <dbl> <dbl> <dbl>
 1 George     15 97.8  15.4   39  
 2 Adrian     13 90.1  49.2   58.5
 3 Daniel     13 99.1   8.85  35.5
 4 Mary       13  1.38 98.4   44.8
 5 John       12 98.9   1.92  44.8
 6 Aaron      11 97.9   6.64  50.8
 7 Sarah      11  3.82 98.7   50.4
 8 Paul        9 97.2   8.44  39.9
 9 Amanda      5  5.4  96.8   42.6
10 Abigail     4  0.75 99.2   47.5
# ℹ 13 more rows
…
