Names Sandbox
…
Long-standing names that also appear as both AMAB and AFAB, with at least 50 tokens (to help weed out obvious data entry errors, although this is not fool-proof):

names_combined |> 
  filter(region == "USA",
         number > 50) |> 
  group_by(name, asab) |> 
  summarise(.groups = "drop",
            count = n()) |> filter(count >= 143) |> 
  pull(name) -> most_longstanding_names

names_combined |> 
  filter(region == "USA",
         name %in% most_longstanding_names)

# A tibble: 60,059 × 7
    year name      number  rank asab  region proportion
   <dbl> <chr>      <dbl> <dbl> <chr> <chr>       <dbl>
 1  1880 Mary        7065     1 F     USA        0.0724
 2  1880 Anna        2604     2 F     USA        0.0267
 3  1880 Emma        2003     3 F     USA        0.0205
 4  1880 Elizabeth   1939     4 F     USA        0.0199
 5  1880 Margaret    1578     6 F     USA        0.0162
 6  1880 Ida         1472     7 F     USA        0.0151
 7  1880 Alice       1414     8 F     USA        0.0145
 8  1880 Sarah       1288    10 F     USA        0.0132
 9  1880 Annie       1258    11 F     USA        0.0129
10  1880 Clara       1226    12 F     USA        0.0126
# ℹ 60,049 more rows
…
